Chapter 2 Interpolating model outputs | harp Tutorial
…
Let’s go ahead and read some data. In the data directory you will find a vfld directory and there you will find a directory for AROME_Arctic_prod. Under that directory you will find vfld files for one day of forecasts. To read the date we will use the function read_forecast. Each of the arguments are annotated so that you understand what they are for.

read_forecast(
  start_date    = 2019021700,           # the first forecast for which we have data
  end_date      = 2019021718,           # the last forecast for which we have data
  fcst_model     = "AROME_Arctic_prod", # the name of the deterministic model as in the file name
  parameter     = "T2m",                # We are going to read 2m temperature
  lead_time     = seq(0, 48, 3),        # We have data for lead times 0 - 48 at 3 hour intervals
  by            = "6h",                 # We have forecasts every 6 hours
  file_path     = here("data/vfld"),    # We don't include AROME_Arctic_prod in the path...
  file_template = "vfld",               # ...because it's in the template
  return_data   = TRUE                  # We want to get some data back - by default nothing is returned
)
## ● AROME_Arctic_prod
## # A tibble: 16,796 x 10
##    fcdate              lead_time parameter   SID   lat   lon units validdate           fcst_cycle AROME_Arctic_prod_det
##    <dttm>                  <dbl> <chr>     <int> <dbl> <dbl> <chr> <dttm>              <chr>                      <dbl>
##  1 2019-02-17 00:00:00         0 T2m        1001  70.9 -8.67 K     2019-02-17 00:00:00 00                          270.
##  2 2019-02-17 00:00:00         0 T2m        1002  80.1 16.2  K     2019-02-17 00:00:00 00                          250.
##  3 2019-02-17 00:00:00         0 T2m        1003  77   15.5  K     2019-02-17 00:00:00 00                          253.
##  4 2019-02-17 00:00:00         0 T2m        1004  78.9 11.9  K     2019-02-17 00:00:00 00                          251.
##  5 2019-02-17 00:00:00         0 T2m        1006  78.3 22.8  K     2019-02-17 00:00:00 00                          244.
##  6 2019-02-17 00:00:00         0 T2m        1007  78.9 11.9  K     2019-02-17 00:00:00 00                          251.
##  7 2019-02-17 00:00:00         0 T2m        1008  78.2 15.5  K     2019-02-17 00:00:00 00                          252.
##  8 2019-02-17 00:00:00         0 T2m        1009  80.7 25.0  K     2019-02-17 00:00:00 00                          246.
##  9 2019-02-17 00:00:00         0 T2m        1010  69.3 16.1  K     2019-02-17 00:00:00 00                          275.
## 10 2019-02-17 00:00:00         0 T2m        1011  80.1 31.5  K     2019-02-17 00:00:00 00                          241.
## # … with 16,786 more rows
…
  start_date    = 2019021700,           
  end_date      = 2019021718,           
  fcst_model    = c("AROME_Arctic_prod", "MEPS_prod"),  
  parameter     = "T2m",                
  lead_time     = seq(0, 48, 3), 
  by            = "6h",                
  file_path     = here("data/vfld"),    
  file_template = list(
    AROME_Arctic_prod = "vfld", 
    MEPS_prod         = "{fcst_model}/vfld{fcst_model}mbr000{YYYY}{MM}{DD}{HH}{LDT2}"
  ),
  return_data   = TRUE                  
)
## ● AROME_Arctic_prod
## # A tibble: 16,796 x 10
##    fcdate              lead_time parameter   SID   lat   lon units validdate           fcst_cycle AROME_Arctic_prod_det
##    <dttm>                  <dbl> <chr>     <int> <dbl> <dbl> <chr> <dttm>              <chr>                      <dbl>
##  1 2019-02-17 00:00:00         0 T2m        1001  70.9 -8.67 K     2019-02-17 00:00:00 00                          270.
##  2 2019-02-17 00:00:00         0 T2m        1002  80.1 16.2  K     2019-02-17 00:00:00 00                          250.
##  3 2019-02-17 00:00:00         0 T2m        1003  77   15.5  K     2019-02-17 00:00:00 00                          253.
##  4 2019-02-17 00:00:00         0 T2m        1004  78.9 11.9  K     2019-02-17 00:00:00 00                          251.
##  5 2019-02-17 00:00:00         0 T2m        1006  78.3 22.8  K     2019-02-17 00:00:00 00                          244.
##  6 2019-02-17 00:00:00         0 T2m        1007  78.9 11.9  K     2019-02-17 00:00:00 00                          251.
##  7 2019-02-17 00:00:00         0 T2m        1008  78.2 15.5  K     2019-02-17 00:00:00 00                          252.
##  8 2019-02-17 00:00:00         0 T2m        1009  80.7 25.0  K     2019-02-17 00:00:00 00                          246.
##  9 2019-02-17 00:00:00         0 T2m        1010  69.3 16.1  K     2019-02-17 00:00:00 00                          275.
## 10 2019-02-17 00:00:00         0 T2m        1011  80.1 31.5  K     2019-02-17 00:00:00 00                          241.
## # … with 16,786 more rows
## 
## ● MEPS_prod
## # A tibble: 78,132 x 10
##    fcdate              lead_time parameter   SID   lat   lon units validdate           fcst_cycle MEPS_prod_det
##    <dttm>                  <dbl> <chr>     <int> <dbl> <dbl> <chr> <dttm>              <chr>              <dbl>
##  1 2019-02-17 00:00:00         0 T2m        1001  70.9 -8.67 K     2019-02-17 00:00:00 00                  268.
##  2 2019-02-17 00:00:00         0 T2m        1010  69.3 16.1  K     2019-02-17 00:00:00 00                  275.
##  3 2019-02-17 00:00:00         0 T2m        1014  69.2 17.9  K     2019-02-17 00:00:00 00                  273.
##  4 2019-02-17 00:00:00         0 T2m        1015  69.6 17.8  K     2019-02-17 00:00:00 00                  275.
##  5 2019-02-17 00:00:00         0 T2m        1018  69.2 16.0  K     2019-02-17 00:00:00 00                  271.
##  6 2019-02-17 00:00:00         0 T2m        1023  69.1 18.5  K     2019-02-17 00:00:00 00                  272.
##  7 2019-02-17 00:00:00         0 T2m        1025  69.7 18.9  K     2019-02-17 00:00:00 00                  272.
##  8 2019-02-17 00:00:00         0 T2m        1026  69.7 18.9  K     2019-02-17 00:00:00 00                  272.
##  9 2019-02-17 00:00:00         0 T2m        1027  69.7 18.9  K     2019-02-17 00:00:00 00                  273.
## 10 2019-02-17 00:00:00         0 T2m        1033  70.2 19.5  K     2019-02-17 00:00:00 00                  274.
## # … with 78,122 more rows
…
read_forecast(
  start_date    = 2019021700,           
  end_date      = 2019021718,           
  fcst_model    = c("MEPS_prod"),  
  parameter     = "T2m",                
  lead_time     = seq(0, 12, 3), 
  members       = seq(0, 9), 
  by            = "6h",                
  file_path     = here("data/vfld"),    
  file_template = "vfld_eps",
  return_data   = TRUE                  
)
## ● MEPS_prod
## # A tibble: 22,980 x 19
##    fcdate              lead_time parameter   SID   lat   lon units validdate           fcst_cycle MEPS_prod_mbr000
##    <dttm>                  <dbl> <chr>     <int> <dbl> <dbl> <chr> <dttm>              <chr>                 <dbl>
##  1 2019-02-17 00:00:00         0 T2m        1001  70.9 -8.67 K     2019-02-17 00:00:00 00                     268.
##  2 2019-02-17 00:00:00         0 T2m        1010  69.3 16.1  K     2019-02-17 00:00:00 00                     275.
##  3 2019-02-17 00:00:00         0 T2m        1014  69.2 17.9  K     2019-02-17 00:00:00 00                     273.
##  4 2019-02-17 00:00:00         0 T2m        1015  69.6 17.8  K     2019-02-17 00:00:00 00                     275.
##  5 2019-02-17 00:00:00         0 T2m        1018  69.2 16.0  K     2019-02-17 00:00:00 00                     271.
##  6 2019-02-17 00:00:00         0 T2m        1023  69.1 18.5  K     2019-02-17 00:00:00 00                     272.
##  7 2019-02-17 00:00:00         0 T2m        1025  69.7 18.9  K     2019-02-17 00:00:00 00                     272.
##  8 2019-02-17 00:00:00         0 T2m        1026  69.7 18.9  K     2019-02-17 00:00:00 00                     272.
##  9 2019-02-17 00:00:00         0 T2m        1027  69.7 18.9  K     2019-02-17 00:00:00 00                     273.
## 10 2019-02-17 00:00:00         0 T2m        1033  70.2 19.5  K     2019-02-17 00:00:00 00                     274.
## # … with 22,970 more rows, and 9 more variables: MEPS_prod_mbr001 <dbl>, MEPS_prod_mbr002 <dbl>, MEPS_prod_mbr003 <dbl>,
## #   MEPS_prod_mbr004 <dbl>, MEPS_prod_mbr005 <dbl>, MEPS_prod_mbr006 <dbl>, MEPS_prod_mbr007 <dbl>,
## #   MEPS_prod_mbr008 <dbl>, MEPS_prod_mbr009 <dbl>
…
read_forecast(
  start_date    = 2019021700,           
  end_date      = 2019021718,           
  fcst_model    = c("MEPS_prod", "AROME_Arctic_prod"),  
  parameter     = "T2m",                
  lead_time     = seq(0, 12, 3), 
  members       = list(MEPS_prod = seq(0, 2), AROME_Arctic_prod = NA), 
  by            = "6h",                
  file_path     = here("data/vfld"),    
  file_template = list(MEPS_prod = "vfld_eps", AROME_Arctic_prod = "vfld"),
  return_data   = TRUE                  
)
## ● AROME_Arctic_prod
## # A tibble: 4,940 x 10
##    fcdate              lead_time parameter   SID   lat   lon units validdate           fcst_cycle AROME_Arctic_prod_det
##    <dttm>                  <dbl> <chr>     <int> <dbl> <dbl> <chr> <dttm>              <chr>                      <dbl>
##  1 2019-02-17 00:00:00         0 T2m        1001  70.9 -8.67 K     2019-02-17 00:00:00 00                          270.
##  2 2019-02-17 00:00:00         0 T2m        1002  80.1 16.2  K     2019-02-17 00:00:00 00                          250.
##  3 2019-02-17 00:00:00         0 T2m        1003  77   15.5  K     2019-02-17 00:00:00 00                          253.
##  4 2019-02-17 00:00:00         0 T2m        1004  78.9 11.9  K     2019-02-17 00:00:00 00                          251.
##  5 2019-02-17 00:00:00         0 T2m        1006  78.3 22.8  K     2019-02-17 00:00:00 00                          244.
##  6 2019-02-17 00:00:00         0 T2m        1007  78.9 11.9  K     2019-02-17 00:00:00 00                          251.
##  7 2019-02-17 00:00:00         0 T2m        1008  78.2 15.5  K     2019-02-17 00:00:00 00                          252.
##  8 2019-02-17 00:00:00         0 T2m        1009  80.7 25.0  K     2019-02-17 00:00:00 00                          246.
##  9 2019-02-17 00:00:00         0 T2m        1010  69.3 16.1  K     2019-02-17 00:00:00 00                          275.
## 10 2019-02-17 00:00:00         0 T2m        1011  80.1 31.5  K     2019-02-17 00:00:00 00                          241.
## # … with 4,930 more rows
## 
## ● MEPS_prod
## # A tibble: 22,980 x 12
##    fcdate              lead_time parameter   SID   lat   lon units validdate           fcst_cycle MEPS_prod_mbr000
##    <dttm>                  <dbl> <chr>     <int> <dbl> <dbl> <chr> <dttm>              <chr>                 <dbl>
##  1 2019-02-17 00:00:00         0 T2m        1001  70.9 -8.67 K     2019-02-17 00:00:00 00                     268.
##  2 2019-02-17 00:00:00         0 T2m        1010  69.3 16.1  K     2019-02-17 00:00:00 00                     275.
##  3 2019-02-17 00:00:00         0 T2m        1014  69.2 17.9  K     2019-02-17 00:00:00 00                     273.
##  4 2019-02-17 00:00:00         0 T2m        1015  69.6 17.8  K     2019-02-17 00:00:00 00                     275.
##  5 2019-02-17 00:00:00         0 T2m        1018  69.2 16.0  K     2019-02-17 00:00:00 00                     271.
##  6 2019-02-17 00:00:00         0 T2m        1023  69.1 18.5  K     2019-02-17 00:00:00 00                     272.
##  7 2019-02-17 00:00:00         0 T2m        1025  69.7 18.9  K     2019-02-17 00:00:00 00                     272.
##  8 2019-02-17 00:00:00         0 T2m        1026  69.7 18.9  K     2019-02-17 00:00:00 00                     272.
##  9 2019-02-17 00:00:00         0 T2m        1027  69.7 18.9  K     2019-02-17 00:00:00 00                     273.
## 10 2019-02-17 00:00:00         0 T2m        1033  70.2 19.5  K     2019-02-17 00:00:00 00                     274.
## # … with 22,970 more rows, and 2 more variables: MEPS_prod_mbr001 <dbl>, MEPS_prod_mbr002 <dbl>
…
  parameter         = "T2m",                
  lead_time         = seq(0, 12, 3), 
  members           = list(awesome_multimodel_eps = list(MEPS_prod = seq(0, 2), AROME_Arctic_prod = 0)), 
  by                = "6h",                
  file_path         = here("data/vfld"),    
  file_template     = list(
    awesome_mutlimodel_eps = list(
      MEPS_prod         = "vfld_multimodel", 
      AROME_Arctic_prod = "{sub_model}/vfld{sub_model}{YYYY}{MM}{DD}{HH}{LDT2}"
    )
  ),
  return_data       = TRUE, 
)
## ● awesome_multimodel_eps
## # A tibble: 23,340 x 13
##    fcdate              lead_time parameter   SID   lat   lon units validdate           fcst_cycle AROME_Arctic_pr…
##    <dttm>                  <dbl> <chr>     <int> <dbl> <dbl> <chr> <dttm>              <chr>                 <dbl>
##  1 2019-02-17 00:00:00         0 T2m        1001  70.9 -8.67 K     2019-02-17 00:00:00 00                     270.
##  2 2019-02-17 00:00:00         0 T2m        1010  69.3 16.1  K     2019-02-17 00:00:00 00                     275.
##  3 2019-02-17 00:00:00         0 T2m        1014  69.2 17.9  K     2019-02-17 00:00:00 00                     273.
##  4 2019-02-17 00:00:00         0 T2m        1015  69.6 17.8  K     2019-02-17 00:00:00 00                     274.
##  5 2019-02-17 00:00:00         0 T2m        1018  69.2 16.0  K     2019-02-17 00:00:00 00                     271.
##  6 2019-02-17 00:00:00         0 T2m        1023  69.1 18.5  K     2019-02-17 00:00:00 00                     272.
##  7 2019-02-17 00:00:00         0 T2m        1025  69.7 18.9  K     2019-02-17 00:00:00 00                     272.
##  8 2019-02-17 00:00:00         0 T2m        1026  69.7 18.9  K     2019-02-17 00:00:00 00                     272.
##  9 2019-02-17 00:00:00         0 T2m        1027  69.7 18.9  K     2019-02-17 00:00:00 00                     273.
## 10 2019-02-17 00:00:00         0 T2m        1033  70.2 19.5  K     2019-02-17 00:00:00 00                     273.
## # … with 23,330 more rows, and 3 more variables: MEPS_prod_mbr000 <dbl>, MEPS_prod_mbr001 <dbl>, MEPS_prod_mbr002 <dbl>
…
read_forecast(
  start_date    = 2019021700,           
  end_date      = 2019021718,           
  fcst_model    = "CMEPS_prod", 
  parameter     = "T2m",                
  lead_time     = seq(0, 12, 3), 
  members       = c(0, 1, 3, 4, 5, 6),
  lags          = c(0, 0, 2, 2, 1, 1),
  by            = "3h",                
  file_path     = here("data/vfld"),    
  file_template = "vfld_eps",
  return_data   = TRUE                  
)
## ● CMEPS_prod
## # A tibble: 40,215 x 15
##    fcdate              lead_time parameter   SID   lat   lon units validdate           fcst_cycle CMEPS_prod_mbr0…
##    <dttm>                  <dbl> <chr>     <int> <dbl> <dbl> <chr> <dttm>              <chr>                 <dbl>
##  1 2019-02-17 00:00:00         0 T2m        1001  70.9 -8.67 K     2019-02-17 00:00:00 00                     269.
##  2 2019-02-17 00:00:00         0 T2m        1010  69.3 16.1  K     2019-02-17 00:00:00 00                     275.
##  3 2019-02-17 00:00:00         0 T2m        1014  69.2 17.9  K     2019-02-17 00:00:00 00                     273.
##  4 2019-02-17 00:00:00         0 T2m        1015  69.6 17.8  K     2019-02-17 00:00:00 00                     275.
##  5 2019-02-17 00:00:00         0 T2m        1018  69.2 16.0  K     2019-02-17 00:00:00 00                     271.
##  6 2019-02-17 00:00:00         0 T2m        1023  69.1 18.5  K     2019-02-17 00:00:00 00                     272.
##  7 2019-02-17 00:00:00         0 T2m        1025  69.7 18.9  K     2019-02-17 00:00:00 00                     272.
##  8 2019-02-17 00:00:00         0 T2m        1026  69.7 18.9  K     2019-02-17 00:00:00 00                     272.
##  9 2019-02-17 00:00:00         0 T2m        1027  69.7 18.9  K     2019-02-17 00:00:00 00                     273.
## 10 2019-02-17 00:00:00         0 T2m        1033  70.2 19.5  K     2019-02-17 00:00:00 00                     273.
## # … with 40,205 more rows, and 5 more variables: CMEPS_prod_mbr001 <dbl>, CMEPS_prod_mbr003_lag2h <dbl>,
## #   CMEPS_prod_mbr004_lag2h <dbl>, CMEPS_prod_mbr005_lag1h <dbl>, CMEPS_prod_mbr006_lag1h <dbl>
…
