Chapter 4 Point Data | harp Tutorial
…
Let’s start with our deterministic data from the AROME Arctic model and member 0 of MEPS. First we load the data into our environment with the function read_point_forecast. As with other functions, we need to tell the function the start and end dates that we want, the names of the models, the parameter, the frequency of the forecasts, the path to the data and whether it is deterministic or ensemble data.

s10m <- read_point_forecast(
  start_date = 2019021700,
  end_date   = 2019021718,
  fcst_model = c("AROME_Arctic_prod", "MEPS_prod"),
  fcst_type  = "det",
  parameter  = "S10m",
  by         = "6h",
  file_path  = here("data/FCTABLE/deterministic")
)
s10m

## ● AROME_Arctic_prod
## # A tibble: 17,612 x 9
##    fcdate              validdate           leadtime   SID parameter
##    <dttm>              <dttm>                 <int> <int> <chr>    
##  1 2019-02-17 00:00:00 2019-02-17 00:00:00        0  1001 S10m     
##  2 2019-02-17 00:00:00 2019-02-17 00:00:00        0  1002 S10m     
##  3 2019-02-17 00:00:00 2019-02-17 00:00:00        0  1003 S10m     
##  4 2019-02-17 00:00:00 2019-02-17 00:00:00        0  1004 S10m     
##  5 2019-02-17 00:00:00 2019-02-17 00:00:00        0  1006 S10m     
##  6 2019-02-17 00:00:00 2019-02-17 00:00:00        0  1007 S10m     
##  7 2019-02-17 00:00:00 2019-02-17 00:00:00        0  1008 S10m     
##  8 2019-02-17 00:00:00 2019-02-17 00:00:00        0  1009 S10m     
##  9 2019-02-17 00:00:00 2019-02-17 00:00:00        0  1010 S10m     
## 10 2019-02-17 00:00:00 2019-02-17 00:00:00        0  1011 S10m     
## # … with 17,602 more rows, and 4 more variables: AROME_Arctic_prod_det <dbl>,
## #   fcst_cycle <chr>, model_elevation <dbl>, units <chr>
## 
## ● MEPS_prod
## # A tibble: 81,804 x 9
##    fcdate              validdate           leadtime   SID parameter
##    <dttm>              <dttm>                 <int> <int> <chr>    
##  1 2019-02-17 00:00:00 2019-02-17 00:00:00        0  1001 S10m     
##  2 2019-02-17 00:00:00 2019-02-17 00:00:00        0  1010 S10m     
##  3 2019-02-17 00:00:00 2019-02-17 00:00:00        0  1014 S10m     
##  4 2019-02-17 00:00:00 2019-02-17 00:00:00        0  1015 S10m     
##  5 2019-02-17 00:00:00 2019-02-17 00:00:00        0  1018 S10m     
##  6 2019-02-17 00:00:00 2019-02-17 00:00:00        0  1021 S10m     
##  7 2019-02-17 00:00:00 2019-02-17 00:00:00        0  1022 S10m     
##  8 2019-02-17 00:00:00 2019-02-17 00:00:00        0  1023 S10m     
##  9 2019-02-17 00:00:00 2019-02-17 00:00:00        0  1025 S10m     
## 10 2019-02-17 00:00:00 2019-02-17 00:00:00        0  1026 S10m     
## # … with 81,794 more rows, and 4 more variables: MEPS_prod_det <dbl>,
## #   fcst_cycle <chr>, model_elevation <dbl>, units <chr>

You will see that data are in two data frames in a list. This list is actually an object of class harp_fcst. Many of the functions in harp only work on harp_fcst objects. Many of the dplyr methods also work on harp_fcst objects. The forecast data are in the last column with the suffix "_det".

Let’s take a look at some of the things you can do with harp_fcst objects. First expand_data

expand_date(s10m, fcdate)

## ● AROME_Arctic_prod
## # A tibble: 17,612 x 14
##    fcdate              validdate           leadtime   SID parameter
##    <dttm>              <dttm>                 <int> <int> <chr>    
##  1 2019-02-17 00:00:00 2019-02-17 00:00:00        0  1001 S10m     
##  2 2019-02-17 00:00:00 2019-02-17 00:00:00        0  1002 S10m     
##  3 2019-02-17 00:00:00 2019-02-17 00:00:00        0  1003 S10m     
##  4 2019-02-17 00:00:00 2019-02-17 00:00:00        0  1004 S10m     
##  5 2019-02-17 00:00:00 2019-02-17 00:00:00        0  1006 S10m     
##  6 2019-02-17 00:00:00 2019-02-17 00:00:00        0  1007 S10m     
##  7 2019-02-17 00:00:00 2019-02-17 00:00:00        0  1008 S10m     
##  8 2019-02-17 00:00:00 2019-02-17 00:00:00        0  1009 S10m     
##  9 2019-02-17 00:00:00 2019-02-17 00:00:00        0  1010 S10m     
## 10 2019-02-17 00:00:00 2019-02-17 00:00:00        0  1011 S10m     
## # … with 17,602 more rows, and 9 more variables: AROME_Arctic_prod_det <dbl>,
## #   fcst_cycle <chr>, model_elevation <dbl>, units <chr>, fc_year <dbl>,
## #   fc_month <dbl>, fc_day <int>, fc_hour <int>, fc_minute <int>
## 
## ● MEPS_prod
## # A tibble: 81,804 x 14
##    fcdate              validdate           leadtime   SID parameter
##    <dttm>              <dttm>                 <int> <int> <chr>    
##  1 2019-02-17 00:00:00 2019-02-17 00:00:00        0  1001 S10m     
##  2 2019-02-17 00:00:00 2019-02-17 00:00:00        0  1010 S10m     
##  3 2019-02-17 00:00:00 2019-02-17 00:00:00        0  1014 S10m     
##  4 2019-02-17 00:00:00 2019-02-17 00:00:00        0  1015 S10m     
##  5 2019-02-17 00:00:00 2019-02-17 00:00:00        0  1018 S10m     
##  6 2019-02-17 00:00:00 2019-02-17 00:00:00        0  1021 S10m     
##  7 2019-02-17 00:00:00 2019-02-17 00:00:00        0  1022 S10m     
##  8 2019-02-17 00:00:00 2019-02-17 00:00:00        0  1023 S10m     
##  9 2019-02-17 00:00:00 2019-02-17 00:00:00        0  1025 S10m     
## 10 2019-02-17 00:00:00 2019-02-17 00:00:00        0  1026 S10m     
## # … with 81,794 more rows, and 9 more variables: MEPS_prod_det <dbl>,
## #   fcst_cycle <chr>, model_elevation <dbl>, units <chr>, fc_year <dbl>,
## #   fc_month <dbl>, fc_day <int>, fc_hour <int>, fc_minute <int>

expand_date(s10m, validdate)

## ● AROME_Arctic_prod
## # A tibble: 17,612 x 14
##    fcdate              validdate           leadtime   SID parameter
##    <dttm>              <dttm>                 <int> <int> <chr>    
##  1 2019-02-17 00:00:00 2019-02-17 00:00:00        0  1001 S10m     
##  2 2019-02-17 00:00:00 2019-02-17 00:00:00        0  1002 S10m     
##  3 2019-02-17 00:00:00 2019-02-17 00:00:00        0  1003 S10m     
##  4 2019-02-17 00:00:00 2019-02-17 00:00:00        0  1004 S10m     
##  5 2019-02-17 00:00:00 2019-02-17 00:00:00        0  1006 S10m     
##  6 2019-02-17 00:00:00 2019-02-17 00:00:00        0  1007 S10m     
##  7 2019-02-17 00:00:00 2019-02-17 00:00:00        0  1008 S10m     
##  8 2019-02-17 00:00:00 2019-02-17 00:00:00        0  1009 S10m     
##  9 2019-02-17 00:00:00 2019-02-17 00:00:00        0  1010 S10m     
## 10 2019-02-17 00:00:00 2019-02-17 00:00:00        0  1011 S10m     
## # … with 17,602 more rows, and 9 more variables: AROME_Arctic_prod_det <dbl>,
## #   fcst_cycle <chr>, model_elevation <dbl>, units <chr>, valid_year <dbl>,
## #   valid_month <dbl>, valid_day <int>, valid_hour <int>, valid_minute <int>
## 
## ● MEPS_prod
## # A tibble: 81,804 x 14
##    fcdate              validdate           leadtime   SID parameter
##    <dttm>              <dttm>                 <int> <int> <chr>    
##  1 2019-02-17 00:00:00 2019-02-17 00:00:00        0  1001 S10m     
##  2 2019-02-17 00:00:00 2019-02-17 00:00:00        0  1010 S10m     
##  3 2019-02-17 00:00:00 2019-02-17 00:00:00        0  1014 S10m     
##  4 2019-02-17 00:00:00 2019-02-17 00:00:00        0  1015 S10m     
##  5 2019-02-17 00:00:00 2019-02-17 00:00:00        0  1018 S10m     
##  6 2019-02-17 00:00:00 2019-02-17 00:00:00        0  1021 S10m     
##  7 2019-02-17 00:00:00 2019-02-17 00:00:00        0  1022 S10m     
##  8 2019-02-17 00:00:00 2019-02-17 00:00:00        0  1023 S10m     
##  9 2019-02-17 00:00:00 2019-02-17 00:00:00        0  1025 S10m     
## 10 2019-02-17 00:00:00 2019-02-17 00:00:00        0  1026 S10m     
## # … with 81,794 more rows, and 9 more variables: MEPS_prod_det <dbl>,
## #   fcst_cycle <chr>, model_elevation <dbl>, units <chr>, valid_year <dbl>,
## #   valid_month <dbl>, valid_day <int>, valid_hour <int>, valid_minute <int>
…
harp doesn’t yet include any functions for plotting deterministic forecasts, but we can easily make the data into a single data frame using bind_fcst.

bind_rows(
  AROME_Arctic_prod = rename(s10m$AROME_Arctic_prod, forecast = AROME_Arctic_prod_det),
  MEPS_prod         = rename(s10m$MEPS_prod, forecast = MEPS_prod_det),
  .id = "mname"
)

## # A tibble: 99,416 x 10
##    mname fcdate              validdate           leadtime   SID parameter
##    <chr> <dttm>              <dttm>                 <int> <int> <chr>    
##  1 AROM… 2019-02-17 00:00:00 2019-02-17 00:00:00        0  1001 S10m     
##  2 AROM… 2019-02-17 00:00:00 2019-02-17 00:00:00        0  1002 S10m     
##  3 AROM… 2019-02-17 00:00:00 2019-02-17 00:00:00        0  1003 S10m     
##  4 AROM… 2019-02-17 00:00:00 2019-02-17 00:00:00        0  1004 S10m     
##  5 AROM… 2019-02-17 00:00:00 2019-02-17 00:00:00        0  1006 S10m     
##  6 AROM… 2019-02-17 00:00:00 2019-02-17 00:00:00        0  1007 S10m     
##  7 AROM… 2019-02-17 00:00:00 2019-02-17 00:00:00        0  1008 S10m     
##  8 AROM… 2019-02-17 00:00:00 2019-02-17 00:00:00        0  1009 S10m     
##  9 AROM… 2019-02-17 00:00:00 2019-02-17 00:00:00        0  1010 S10m     
## 10 AROM… 2019-02-17 00:00:00 2019-02-17 00:00:00        0  1011 S10m     
## # … with 99,406 more rows, and 4 more variables: forecast <dbl>,
## #   fcst_cycle <chr>, model_elevation <dbl>, units <chr>

You will also find in R directory a function, bind_fcst that does this binding for you - this function will be part of harp soon.

bind_fcst(s10m)

## # A tibble: 99,416 x 10
##    mname fcdate              validdate           leadtime   SID parameter
##    <chr> <dttm>              <dttm>                 <int> <int> <chr>    
##  1 AROM… 2019-02-17 00:00:00 2019-02-17 00:00:00        0  1001 S10m     
##  2 AROM… 2019-02-17 00:00:00 2019-02-17 00:00:00        0  1002 S10m     
##  3 AROM… 2019-02-17 00:00:00 2019-02-17 00:00:00        0  1003 S10m     
##  4 AROM… 2019-02-17 00:00:00 2019-02-17 00:00:00        0  1004 S10m     
##  5 AROM… 2019-02-17 00:00:00 2019-02-17 00:00:00        0  1006 S10m     
##  6 AROM… 2019-02-17 00:00:00 2019-02-17 00:00:00        0  1007 S10m     
##  7 AROM… 2019-02-17 00:00:00 2019-02-17 00:00:00        0  1008 S10m     
##  8 AROM… 2019-02-17 00:00:00 2019-02-17 00:00:00        0  1009 S10m     
##  9 AROM… 2019-02-17 00:00:00 2019-02-17 00:00:00        0  1010 S10m     
## 10 AROM… 2019-02-17 00:00:00 2019-02-17 00:00:00        0  1011 S10m     
## # … with 99,406 more rows, and 4 more variables: forecast <dbl>,
## #   fcst_cycle <chr>, model_elevation <dbl>, units <chr>
…
4.2.1 Verifying deterministic forecasts

Now that we have both forecasts and observations we can verify the forecasts. This is very simple in harp - we just run the function det_verify giving that data and telling it which column has the observations:

det_verify(s10m, S10m)

## $det_summary_scores
## # A tibble: 34 x 7
##    mname             leadtime num_cases   bias  rmse   mae  stde
##    <chr>                <int>     <int>  <dbl> <dbl> <dbl> <dbl>
##  1 AROME_Arctic_prod        0       629 0.137   2.57  1.80  2.57
##  2 AROME_Arctic_prod        3       679 0.0580  2.34  1.60  2.34
##  3 AROME_Arctic_prod        6       622 0.0390  2.38  1.65  2.38
##  4 AROME_Arctic_prod        9       679 0.0942  2.08  1.42  2.08
##  5 AROME_Arctic_prod       12       628 0.169   2.24  1.53  2.24
##  6 AROME_Arctic_prod       15       675 0.295   2.17  1.53  2.15
##  7 AROME_Arctic_prod       18       630 0.319   2.22  1.53  2.20
##  8 AROME_Arctic_prod       21       676 0.480   2.23  1.61  2.17
##  9 AROME_Arctic_prod       24       628 0.388   2.34  1.61  2.31
## 10 AROME_Arctic_prod       27       674 0.538   2.39  1.69  2.33
## # … with 24 more rows
## 
## $det_threshold_scores
…
You will see that the output is a list of two data frames - one fore summary scores and one for threshold scores. The threshold scores data frame contains only missing data as we didn’t give the function any thresholds to verify for. However, that is easily done:

verif_s10m <- det_verify(s10m, S10m, thresholds = seq(2.5, 12.5, 2.5))
verif_s10m

## $det_summary_scores
## # A tibble: 34 x 7
##    mname             leadtime num_cases   bias  rmse   mae  stde
##    <chr>                <int>     <int>  <dbl> <dbl> <dbl> <dbl>
##  1 AROME_Arctic_prod        0       629 0.137   2.57  1.80  2.57
##  2 AROME_Arctic_prod        3       679 0.0580  2.34  1.60  2.34
##  3 AROME_Arctic_prod        6       622 0.0390  2.38  1.65  2.38
##  4 AROME_Arctic_prod        9       679 0.0942  2.08  1.42  2.08
##  5 AROME_Arctic_prod       12       628 0.169   2.24  1.53  2.24
##  6 AROME_Arctic_prod       15       675 0.295   2.17  1.53  2.15
##  7 AROME_Arctic_prod       18       630 0.319   2.22  1.53  2.20
##  8 AROME_Arctic_prod       21       676 0.480   2.23  1.61  2.17
##  9 AROME_Arctic_prod       24       628 0.388   2.34  1.61  2.31
## 10 AROME_Arctic_prod       27       674 0.538   2.39  1.69  2.33
## # … with 24 more rows
## 
## $det_threshold_scores
## # A tibble: 170 x 40
##    mname leadtime threshold num_cases_for_t… num_cases_for_t… num_cases_for_t…
##    <chr>    <int>     <dbl>            <dbl>            <dbl>            <dbl>
##  1 AROM…        0       2.5              461              418              421
##  2 AROM…        3       2.5              482              418              436
##  3 AROM…        6       2.5              410              348              358
##  4 AROM…        9       2.5              449              365              403
##  5 AROM…       12       2.5              410              328              363
##  6 AROM…       15       2.5              459              358              422
##  7 AROM…       18       2.5              437              338              389
##  8 AROM…       21       2.5              497              374              466
##  9 AROM…       24       2.5              452              348              413
## 10 AROM…       27       2.5              496              374              471
## # … with 160 more rows, and 34 more variables: cont_tab <list>,
## #   threat_score <dbl>, hit_rate <dbl>, miss_rate <dbl>,
## #   false_alarm_rate <dbl>, false_alarm_ratio <dbl>, heidke_skill_score <dbl>,
## #   pierce_skill_score <dbl>, kuiper_skill_score <dbl>, percent_correct <dbl>,
## #   frequency_bias <dbl>, equitable_threat_score <dbl>, odds_ratio <dbl>,
## #   log_odds_ratio <dbl>, odds_ratio_skill_score <dbl>,
## #   extreme_dependency_score <dbl>, symmetric_eds <dbl>,
## #   extreme_dependency_index <dbl>, symmetric_edi <dbl>,
## #   threat_score_std_error <dbl>, hit_rate_std_error <dbl>,
…
One thing you’ll immediately notice is that the number of cases for MEPS_prod is much larger than for AROME_Arctic_prod. This means that in this verification we are not making a fair comparison - we should actually only be verifying the dates and locations that are common to both systems. harp provides the function common_cases() to do just that!

common_cases(s10m)

## ● AROME_Arctic_prod
## # A tibble: 10,170 x 13
##    fcdate              validdate           leadtime   SID parameter
##    <dttm>              <dttm>                 <int> <int> <chr>    
##  1 2019-02-17 00:00:00 2019-02-17 00:00:00        0  1001 S10m     
##  2 2019-02-17 00:00:00 2019-02-17 00:00:00        0  1010 S10m     
##  3 2019-02-17 00:00:00 2019-02-17 00:00:00        0  1015 S10m     
##  4 2019-02-17 00:00:00 2019-02-17 00:00:00        0  1018 S10m     
##  5 2019-02-17 00:00:00 2019-02-17 00:00:00        0  1023 S10m     
##  6 2019-02-17 00:00:00 2019-02-17 00:00:00        0  1025 S10m     
##  7 2019-02-17 00:00:00 2019-02-17 00:00:00        0  1026 S10m     
##  8 2019-02-17 00:00:00 2019-02-17 00:00:00        0  1033 S10m     
##  9 2019-02-17 00:00:00 2019-02-17 00:00:00        0  1036 S10m     
## 10 2019-02-17 00:00:00 2019-02-17 00:00:00        0  1037 S10m     
## # … with 10,160 more rows, and 8 more variables: AROME_Arctic_prod_det <dbl>,
## #   fcst_cycle <chr>, model_elevation <dbl>, units <chr>, lon <dbl>, lat <dbl>,
## #   elev <dbl>, S10m <dbl>
## 
## ● MEPS_prod
## # A tibble: 10,170 x 13
##    fcdate              validdate           leadtime   SID parameter
##    <dttm>              <dttm>                 <int> <int> <chr>    
##  1 2019-02-17 00:00:00 2019-02-17 00:00:00        0  1001 S10m     
##  2 2019-02-17 00:00:00 2019-02-17 00:00:00        0  1010 S10m     
##  3 2019-02-17 00:00:00 2019-02-17 00:00:00        0  1015 S10m     
##  4 2019-02-17 00:00:00 2019-02-17 00:00:00        0  1018 S10m     
##  5 2019-02-17 00:00:00 2019-02-17 00:00:00        0  1023 S10m     
##  6 2019-02-17 00:00:00 2019-02-17 00:00:00        0  1025 S10m     
##  7 2019-02-17 00:00:00 2019-02-17 00:00:00        0  1026 S10m     
##  8 2019-02-17 00:00:00 2019-02-17 00:00:00        0  1033 S10m     
##  9 2019-02-17 00:00:00 2019-02-17 00:00:00        0  1036 S10m     
## 10 2019-02-17 00:00:00 2019-02-17 00:00:00        0  1037 S10m     
## # … with 10,160 more rows, and 8 more variables: MEPS_prod_det <dbl>,
## #   fcst_cycle <chr>, model_elevation <dbl>, units <chr>, lon <dbl>, lat <dbl>,
## #   elev <dbl>, S10m <dbl>
…
4.2.2 Verification by group

The default behaviour of harp verification functions is to compute the verification metrics for each lead time. However, you can also compute the scores for any groups of data, much in the same way as group_by enables you to do. In this case groups are specified in the groupings argument to the verification function, and unlike group_by the column names you wish to use for grouping variables must be quoted (this may change in the future for consistency with group_by) and if there are more than one in a charcater vector. We could for example compute scores for each valid time:

(verif_s10m <- det_verify(s10m, S10m, groupings = "validdate"))

## $det_summary_scores
## # A tibble: 46 x 7
##    mname             validdate           num_cases    bias  rmse   mae  stde
##    <chr>             <dttm>                  <int>   <dbl> <dbl> <dbl> <dbl>
##  1 AROME_Arctic_prod 2019-02-17 00:00:00       147  0.276   3.04  2.28  3.04
##  2 AROME_Arctic_prod 2019-02-17 03:00:00       155  0.121   2.90  2.11  2.91
##  3 AROME_Arctic_prod 2019-02-17 06:00:00       270  0.0203  2.68  1.81  2.68
##  4 AROME_Arctic_prod 2019-02-17 09:00:00       312 -0.295   1.95  1.35  1.93
##  5 AROME_Arctic_prod 2019-02-17 12:00:00       459 -0.235   2.07  1.44  2.06
##  6 AROME_Arctic_prod 2019-02-17 15:00:00       468 -0.112   1.95  1.26  1.95
##  7 AROME_Arctic_prod 2019-02-17 18:00:00       572 -0.0128  1.84  1.30  1.84
##  8 AROME_Arctic_prod 2019-02-17 21:00:00       628  0.192   2.05  1.39  2.05
##  9 AROME_Arctic_prod 2019-02-18 00:00:00       560 -0.0470  2.25  1.53  2.25
## 10 AROME_Arctic_prod 2019-02-18 03:00:00       620  0.126   2.04  1.45  2.03
## # … with 36 more rows
## 
## $det_threshold_scores
…
